{
  "formatVersion": 1,
  "database": {
    "version": 1,
    "identityHash": "16bfcaf594de3d5f8af5513733353020",
    "entities": [
      {
        "tableName": "products",
        "createSql": "CREATE TABLE IF NOT EXISTS `${TABLE_NAME}` (`mId` INTEGER PRIMARY KEY AUTOINCREMENT, `Image1` TEXT, `Image2` TEXT, `Image3` TEXT, `Image4` TEXT, `InsertDate` TEXT, `PDFName` TEXT, `PdfURL` TEXT, `ProductCategory` TEXT, `ProductDescription` TEXT, `ProductImage` TEXT, `ProductName` TEXT, `ProductSubCategory` TEXT, `ProductURL` TEXT, `Status` TEXT, `UpdateDate` TEXT, `VideoName` TEXT, `WhatsNew` TEXT, `TechnicalDetails` TEXT, `Productposition` TEXT, `position` TEXT)",
        "fields": [
          {
            "fieldPath": "mId",
            "columnName": "mId",
            "affinity": "INTEGER",
            "notNull": false
          },
          {
            "fieldPath": "mImage1",
            "columnName": "Image1",
            "affinity": "TEXT",
            "notNull": false
          },
          {
            "fieldPath": "mImage2",
            "columnName": "Image2",
            "affinity": "TEXT",
            "notNull": false
          },
          {
            "fieldPath": "mImage3",
            "columnName": "Image3",
            "affinity": "TEXT",
            "notNull": false
          },
          {
            "fieldPath": "mImage4",
            "columnName": "Image4",
            "affinity": "TEXT",
            "notNull": false
          },
          {
            "fieldPath": "mInsertDate",
            "columnName": "InsertDate",
            "affinity": "TEXT",
            "notNull": false
          },
          {
            "fieldPath": "mPDFName",
            "columnName": "PDFName",
            "affinity": "TEXT",
            "notNull": false
          },
          {
            "fieldPath": "mPdfURL",
            "columnName": "PdfURL",
            "affinity": "TEXT",
            "notNull": false
          },
          {
            "fieldPath": "mProductCategory",
            "columnName": "ProductCategory",
            "affinity": "TEXT",
            "notNull": false
          },
          {
            "fieldPath": "mProductDescription",
            "columnName": "ProductDescription",
            "affinity": "TEXT",
            "notNull": false
          },
          {
            "fieldPath": "mProductImage",
            "columnName": "ProductImage",
            "affinity": "TEXT",
            "notNull": false
          },
          {
            "fieldPath": "mProductName",
            "columnName": "ProductName",
            "affinity": "TEXT",
            "notNull": false
          },
          {
            "fieldPath": "mProductSubCategory",
            "columnName": "ProductSubCategory",
            "affinity": "TEXT",
            "notNull": false
          },
          {
            "fieldPath": "mProductURL",
            "columnName": "ProductURL",
            "affinity": "TEXT",
            "notNull": false
          },
          {
            "fieldPath": "mStatus",
            "columnName": "Status",
            "affinity": "TEXT",
            "notNull": false
          },
          {
            "fieldPath": "mUpdateDate",
            "columnName": "UpdateDate",
            "affinity": "TEXT",
            "notNull": false
          },
          {
            "fieldPath": "mVideoName",
            "columnName": "VideoName",
            "affinity": "TEXT",
            "notNull": false
          },
          {
            "fieldPath": "mWhatsNew",
            "columnName": "WhatsNew",
            "affinity": "TEXT",
            "notNull": false
          },
          {
            "fieldPath": "mTechnicalDetails",
            "columnName": "TechnicalDetails",
            "affinity": "TEXT",
            "notNull": false
          },
          {
            "fieldPath": "Productposition",
            "columnName": "Productposition",
            "affinity": "TEXT",
            "notNull": false
          },
          {
            "fieldPath": "position",
            "columnName": "position",
            "affinity": "TEXT",
            "notNull": false
          }
        ],
        "primaryKey": {
          "columnNames": [
            "mId"
          ],
          "autoGenerate": true
        },
        "indices": [],
        "foreignKeys": []
      },
      {
        "tableName": "contacts",
        "createSql": "CREATE TABLE IF NOT EXISTS `${TABLE_NAME}` (`mId` INTEGER PRIMARY KEY AUTOINCREMENT, `Address` TEXT, `City` TEXT, `EmailId` TEXT, `Landline` TEXT, `MobileNo` TEXT, `Pincode` TEXT, `State` TEXT, `Status` TEXT)",
        "fields": [
          {
            "fieldPath": "mId",
            "columnName": "mId",
            "affinity": "INTEGER",
            "notNull": false
          },
          {
            "fieldPath": "mAddress",
            "columnName": "Address",
            "affinity": "TEXT",
            "notNull": false
          },
          {
            "fieldPath": "mCity",
            "columnName": "City",
            "affinity": "TEXT",
            "notNull": false
          },
          {
            "fieldPath": "mEmailId",
            "columnName": "EmailId",
            "affinity": "TEXT",
            "notNull": false
          },
          {
            "fieldPath": "mLandline",
            "columnName": "Landline",
            "affinity": "TEXT",
            "notNull": false
          },
          {
            "fieldPath": "mMobileNo",
            "columnName": "MobileNo",
            "affinity": "TEXT",
            "notNull": false
          },
          {
            "fieldPath": "mPincode",
            "columnName": "Pincode",
            "affinity": "TEXT",
            "notNull": false
          },
          {
            "fieldPath": "mState",
            "columnName": "State",
            "affinity": "TEXT",
            "notNull": false
          },
          {
            "fieldPath": "mStatus",
            "columnName": "Status",
            "affinity": "TEXT",
            "notNull": false
          }
        ],
        "primaryKey": {
          "columnNames": [
            "mId"
          ],
          "autoGenerate": true
        },
        "indices": [],
        "foreignKeys": []
      }
    ],
    "setupQueries": [
      "CREATE TABLE IF NOT EXISTS room_master_table (id INTEGER PRIMARY KEY,identity_hash TEXT)",
      "INSERT OR REPLACE INTO room_master_table (id,identity_hash) VALUES(42, \"16bfcaf594de3d5f8af5513733353020\")"
    ]
  }
}